<mxfile host="Electron" modified="2023-12-13T09:26:56.815Z" agent="Mozilla/5.0 (Windows NT 10.0; Win64; x64) AppleWebKit/537.36 (KHTML, like Gecko) draw.io/22.1.2 Chrome/114.0.5735.289 Electron/25.9.4 Safari/537.36" etag="9OzW-D434C1Tnh1_gkhs" version="22.1.2" type="device">
  <diagram name="Seite-1" id="9TeHcCt6J-GEG5HC8Zqi">
    <mxGraphModel dx="1632" dy="5656" grid="1" gridSize="10" guides="1" tooltips="1" connect="1" arrows="1" fold="1" page="1" pageScale="1" pageWidth="3300" pageHeight="4681" math="0" shadow="0">
      <root>
        <mxCell id="0" />
        <mxCell id="1" parent="0" />
        <mxCell id="xNBNqYx71W2tSvFin_4h-1" value="" style="rounded=0;whiteSpace=wrap;html=1;labelBackgroundColor=none;" vertex="1" parent="1">
          <mxGeometry x="1680" y="-90" width="730" height="780" as="geometry" />
        </mxCell>
        <mxCell id="xNBNqYx71W2tSvFin_4h-2" value="" style="group;labelBackgroundColor=none;" vertex="1" connectable="0" parent="1">
          <mxGeometry x="1620" width="830" height="650" as="geometry" />
        </mxCell>
        <mxCell id="xNBNqYx71W2tSvFin_4h-3" value="" style="rounded=1;whiteSpace=wrap;html=1;dashed=1;movable=0;resizable=0;rotatable=0;deletable=0;editable=0;locked=1;connectable=0;labelBackgroundColor=none;" vertex="1" parent="xNBNqYx71W2tSvFin_4h-2">
          <mxGeometry x="120" y="-10" width="610" height="660" as="geometry" />
        </mxCell>
        <mxCell id="xNBNqYx71W2tSvFin_4h-4" value="" style="endArrow=none;html=1;rounded=1;entryX=0;entryY=1;entryDx=0;entryDy=-15;entryPerimeter=0;labelBackgroundColor=none;fontColor=default;" edge="1" parent="xNBNqYx71W2tSvFin_4h-2" target="xNBNqYx71W2tSvFin_4h-7">
          <mxGeometry width="50" height="50" relative="1" as="geometry">
            <mxPoint y="445" as="sourcePoint" />
            <mxPoint x="410" y="250" as="targetPoint" />
          </mxGeometry>
        </mxCell>
        <mxCell id="xNBNqYx71W2tSvFin_4h-5" value="" style="group;labelBackgroundColor=none;" vertex="1" connectable="0" parent="xNBNqYx71W2tSvFin_4h-2">
          <mxGeometry x="300" width="530" height="460" as="geometry" />
        </mxCell>
        <mxCell id="xNBNqYx71W2tSvFin_4h-6" value="" style="group;labelBackgroundColor=none;" vertex="1" connectable="0" parent="xNBNqYx71W2tSvFin_4h-5">
          <mxGeometry width="410" height="460" as="geometry" />
        </mxCell>
        <mxCell id="xNBNqYx71W2tSvFin_4h-7" value="" style="shape=cylinder3;whiteSpace=wrap;html=1;boundedLbl=1;backgroundOutline=1;size=15;rounded=1;labelBackgroundColor=none;" vertex="1" parent="xNBNqYx71W2tSvFin_4h-6">
          <mxGeometry x="190" y="150" width="60" height="310" as="geometry" />
        </mxCell>
        <mxCell id="xNBNqYx71W2tSvFin_4h-8" value="Soil Surface Water" style="rounded=1;whiteSpace=wrap;html=1;labelBackgroundColor=none;" vertex="1" parent="xNBNqYx71W2tSvFin_4h-6">
          <mxGeometry x="55" y="420" width="105" height="20" as="geometry" />
        </mxCell>
        <mxCell id="xNBNqYx71W2tSvFin_4h-9" value="" style="endArrow=none;html=1;rounded=1;entryX=1;entryY=1;entryDx=0;entryDy=-15;entryPerimeter=0;labelBackgroundColor=none;fontColor=default;" edge="1" parent="xNBNqYx71W2tSvFin_4h-5" target="xNBNqYx71W2tSvFin_4h-7">
          <mxGeometry width="50" height="50" relative="1" as="geometry">
            <mxPoint x="530" y="445" as="sourcePoint" />
            <mxPoint x="110" y="250" as="targetPoint" />
          </mxGeometry>
        </mxCell>
        <mxCell id="xNBNqYx71W2tSvFin_4h-10" value="" style="ellipse;shape=cloud;whiteSpace=wrap;html=1;rounded=1;labelBackgroundColor=none;" vertex="1" parent="xNBNqYx71W2tSvFin_4h-2">
          <mxGeometry x="300" width="410" height="190" as="geometry" />
        </mxCell>
        <mxCell id="xNBNqYx71W2tSvFin_4h-11" value="Air&amp;nbsp; Temperature" style="rounded=1;whiteSpace=wrap;html=1;labelBackgroundColor=none;" vertex="1" parent="xNBNqYx71W2tSvFin_4h-2">
          <mxGeometry x="170" y="410" width="80" height="30" as="geometry" />
        </mxCell>
        <mxCell id="xNBNqYx71W2tSvFin_4h-12" value="&lt;div&gt;Soil Surface&lt;/div&gt;&lt;div&gt;Temperature&lt;/div&gt;" style="rounded=1;whiteSpace=wrap;html=1;labelBackgroundColor=none;" vertex="1" parent="xNBNqYx71W2tSvFin_4h-2">
          <mxGeometry x="165" y="480" width="90" height="60" as="geometry" />
        </mxCell>
        <mxCell id="xNBNqYx71W2tSvFin_4h-13" value="" style="endArrow=classic;startArrow=classic;html=1;rounded=0;exitX=0.5;exitY=0;exitDx=0;exitDy=0;entryX=0.5;entryY=1;entryDx=0;entryDy=0;labelBackgroundColor=none;fontColor=default;" edge="1" parent="xNBNqYx71W2tSvFin_4h-2" source="xNBNqYx71W2tSvFin_4h-12" target="xNBNqYx71W2tSvFin_4h-11">
          <mxGeometry width="50" height="50" relative="1" as="geometry">
            <mxPoint x="290" y="310" as="sourcePoint" />
            <mxPoint x="340" y="260" as="targetPoint" />
          </mxGeometry>
        </mxCell>
        <mxCell id="xNBNqYx71W2tSvFin_4h-14" value="&lt;div&gt;Conduction&lt;/div&gt;" style="edgeLabel;html=1;align=center;verticalAlign=middle;resizable=0;points=[];labelBackgroundColor=none;" vertex="1" connectable="0" parent="xNBNqYx71W2tSvFin_4h-13">
          <mxGeometry x="0.1176" y="1" relative="1" as="geometry">
            <mxPoint as="offset" />
          </mxGeometry>
        </mxCell>
        <mxCell id="xNBNqYx71W2tSvFin_4h-15" value="" style="endArrow=none;dashed=1;html=1;rounded=0;labelBackgroundColor=none;fontColor=default;" edge="1" parent="xNBNqYx71W2tSvFin_4h-2">
          <mxGeometry width="50" height="50" relative="1" as="geometry">
            <mxPoint x="150" y="570" as="sourcePoint" />
            <mxPoint x="150" y="570" as="targetPoint" />
            <Array as="points">
              <mxPoint x="150" y="470" />
              <mxPoint x="340" y="470" />
              <mxPoint x="340" y="450" />
              <mxPoint x="420" y="450" />
              <mxPoint x="420" y="470" />
              <mxPoint x="420" y="570" />
            </Array>
          </mxGeometry>
        </mxCell>
        <mxCell id="xNBNqYx71W2tSvFin_4h-16" value="" style="endArrow=classic;html=1;rounded=0;exitX=0.5;exitY=1;exitDx=0;exitDy=0;labelBackgroundColor=none;fontColor=default;" edge="1" parent="xNBNqYx71W2tSvFin_4h-2" source="xNBNqYx71W2tSvFin_4h-12">
          <mxGeometry width="50" height="50" relative="1" as="geometry">
            <mxPoint x="209.40999999999985" y="540" as="sourcePoint" />
            <mxPoint x="209.40999999999985" y="670" as="targetPoint" />
          </mxGeometry>
        </mxCell>
        <mxCell id="xNBNqYx71W2tSvFin_4h-17" value="&lt;div&gt;Ground&lt;/div&gt;&lt;div&gt;Heat Flux&lt;br&gt;&lt;/div&gt;" style="edgeLabel;html=1;align=center;verticalAlign=middle;resizable=0;points=[];labelBackgroundColor=none;" vertex="1" connectable="0" parent="xNBNqYx71W2tSvFin_4h-16">
          <mxGeometry x="-0.1529" y="-2" relative="1" as="geometry">
            <mxPoint as="offset" />
          </mxGeometry>
        </mxCell>
        <mxCell id="xNBNqYx71W2tSvFin_4h-18" style="edgeStyle=orthogonalEdgeStyle;rounded=0;orthogonalLoop=1;jettySize=auto;html=1;exitX=0.5;exitY=1;exitDx=0;exitDy=0;entryX=0.5;entryY=0;entryDx=0;entryDy=0;labelBackgroundColor=none;fontColor=default;" edge="1" parent="1" source="xNBNqYx71W2tSvFin_4h-22" target="xNBNqYx71W2tSvFin_4h-34">
          <mxGeometry relative="1" as="geometry" />
        </mxCell>
        <mxCell id="xNBNqYx71W2tSvFin_4h-19" value="Plant Evaporation" style="edgeLabel;html=1;align=center;verticalAlign=middle;resizable=0;points=[];labelBackgroundColor=none;" vertex="1" connectable="0" parent="xNBNqYx71W2tSvFin_4h-18">
          <mxGeometry x="-0.0171" y="-1" relative="1" as="geometry">
            <mxPoint as="offset" />
          </mxGeometry>
        </mxCell>
        <mxCell id="xNBNqYx71W2tSvFin_4h-20" style="edgeStyle=orthogonalEdgeStyle;rounded=0;orthogonalLoop=1;jettySize=auto;html=1;exitX=0.25;exitY=1;exitDx=0;exitDy=0;entryX=0.25;entryY=0;entryDx=0;entryDy=0;labelBackgroundColor=none;fontColor=default;" edge="1" parent="1" source="xNBNqYx71W2tSvFin_4h-22" target="xNBNqYx71W2tSvFin_4h-8">
          <mxGeometry relative="1" as="geometry">
            <mxPoint x="2020" y="390" as="targetPoint" />
          </mxGeometry>
        </mxCell>
        <mxCell id="xNBNqYx71W2tSvFin_4h-21" value="&lt;div&gt;Throughfall&lt;br&gt;&lt;/div&gt;" style="edgeLabel;html=1;align=center;verticalAlign=middle;resizable=0;points=[];labelBackgroundColor=none;" vertex="1" connectable="0" parent="xNBNqYx71W2tSvFin_4h-20">
          <mxGeometry x="-0.5221" y="-5" relative="1" as="geometry">
            <mxPoint x="5" y="65" as="offset" />
          </mxGeometry>
        </mxCell>
        <mxCell id="xNBNqYx71W2tSvFin_4h-22" value="Tree Water Layer" style="rounded=1;whiteSpace=wrap;html=1;fontSize=12;glass=0;strokeWidth=1;shadow=0;labelBackgroundColor=none;" vertex="1" parent="1">
          <mxGeometry x="1950" y="50" width="120" height="40" as="geometry" />
        </mxCell>
        <mxCell id="xNBNqYx71W2tSvFin_4h-23" value="" style="endArrow=classic;html=1;rounded=1;entryX=0.25;entryY=0;entryDx=0;entryDy=0;labelBackgroundColor=none;fontColor=default;" edge="1" parent="1" target="xNBNqYx71W2tSvFin_4h-22">
          <mxGeometry width="50" height="50" relative="1" as="geometry">
            <mxPoint x="1980" y="-50" as="sourcePoint" />
            <mxPoint x="2030" y="220" as="targetPoint" />
          </mxGeometry>
        </mxCell>
        <mxCell id="xNBNqYx71W2tSvFin_4h-24" value="&lt;div&gt;Precipitation&lt;/div&gt;" style="edgeLabel;html=1;align=center;verticalAlign=middle;resizable=0;points=[];rounded=1;labelBackgroundColor=none;" vertex="1" connectable="0" parent="xNBNqYx71W2tSvFin_4h-23">
          <mxGeometry x="-0.2286" y="1" relative="1" as="geometry">
            <mxPoint x="-11" y="31" as="offset" />
          </mxGeometry>
        </mxCell>
        <mxCell id="xNBNqYx71W2tSvFin_4h-25" value="" style="endArrow=classic;html=1;rounded=0;exitX=0.5;exitY=0;exitDx=0;exitDy=0;labelBackgroundColor=none;fontColor=default;" edge="1" parent="1" source="xNBNqYx71W2tSvFin_4h-22">
          <mxGeometry width="50" height="50" relative="1" as="geometry">
            <mxPoint x="1970" y="280" as="sourcePoint" />
            <mxPoint x="2010" y="-50" as="targetPoint" />
          </mxGeometry>
        </mxCell>
        <mxCell id="xNBNqYx71W2tSvFin_4h-26" value="&lt;div&gt;Plant&lt;br&gt;&lt;/div&gt;&lt;div&gt;Evaporation&lt;/div&gt;" style="edgeLabel;html=1;align=center;verticalAlign=middle;resizable=0;points=[];labelBackgroundColor=none;" vertex="1" connectable="0" parent="xNBNqYx71W2tSvFin_4h-25">
          <mxGeometry x="0.181" y="-1" relative="1" as="geometry">
            <mxPoint x="-1" y="5" as="offset" />
          </mxGeometry>
        </mxCell>
        <mxCell id="xNBNqYx71W2tSvFin_4h-27" style="edgeStyle=orthogonalEdgeStyle;rounded=0;orthogonalLoop=1;jettySize=auto;html=1;exitX=0.5;exitY=0;exitDx=0;exitDy=0;labelBackgroundColor=none;fontColor=default;" edge="1" parent="1" source="xNBNqYx71W2tSvFin_4h-58">
          <mxGeometry relative="1" as="geometry">
            <mxPoint x="2140" y="-50" as="targetPoint" />
          </mxGeometry>
        </mxCell>
        <mxCell id="xNBNqYx71W2tSvFin_4h-28" value="Transpiration" style="edgeLabel;html=1;align=center;verticalAlign=middle;resizable=0;points=[];labelBackgroundColor=none;" vertex="1" connectable="0" parent="xNBNqYx71W2tSvFin_4h-27">
          <mxGeometry x="-0.0761" y="-1" relative="1" as="geometry">
            <mxPoint x="-1" y="-51" as="offset" />
          </mxGeometry>
        </mxCell>
        <mxCell id="xNBNqYx71W2tSvFin_4h-29" value="&lt;div&gt;Soil Water Content&lt;/div&gt;" style="rounded=1;whiteSpace=wrap;html=1;labelBackgroundColor=none;" vertex="1" parent="1">
          <mxGeometry x="1900" y="480" width="120" height="60" as="geometry" />
        </mxCell>
        <mxCell id="xNBNqYx71W2tSvFin_4h-30" value="" style="endArrow=classic;html=1;rounded=0;exitX=0.25;exitY=0;exitDx=0;exitDy=0;entryX=0.75;entryY=1;entryDx=0;entryDy=0;labelBackgroundColor=none;fontColor=default;" edge="1" parent="1" source="xNBNqYx71W2tSvFin_4h-29" target="xNBNqYx71W2tSvFin_4h-34">
          <mxGeometry width="50" height="50" relative="1" as="geometry">
            <mxPoint x="1970" y="300" as="sourcePoint" />
            <mxPoint x="1930" y="340" as="targetPoint" />
          </mxGeometry>
        </mxCell>
        <mxCell id="xNBNqYx71W2tSvFin_4h-31" value="&lt;div&gt;Soil Evaporation&lt;/div&gt;&lt;div&gt;&amp;amp; Latent Heat Flux&lt;br&gt;&lt;/div&gt;" style="edgeLabel;html=1;align=center;verticalAlign=middle;resizable=0;points=[];labelBackgroundColor=none;" vertex="1" connectable="0" parent="xNBNqYx71W2tSvFin_4h-30">
          <mxGeometry x="-0.0472" relative="1" as="geometry">
            <mxPoint y="-22" as="offset" />
          </mxGeometry>
        </mxCell>
        <mxCell id="xNBNqYx71W2tSvFin_4h-32" style="edgeStyle=orthogonalEdgeStyle;rounded=0;orthogonalLoop=1;jettySize=auto;html=1;exitX=1;exitY=0.5;exitDx=0;exitDy=0;entryX=0.75;entryY=1;entryDx=0;entryDy=0;labelBackgroundColor=none;fontColor=default;" edge="1" parent="1" source="xNBNqYx71W2tSvFin_4h-34" target="xNBNqYx71W2tSvFin_4h-22">
          <mxGeometry relative="1" as="geometry" />
        </mxCell>
        <mxCell id="xNBNqYx71W2tSvFin_4h-33" value="Condensation" style="edgeLabel;html=1;align=center;verticalAlign=middle;resizable=0;points=[];labelBackgroundColor=none;" vertex="1" connectable="0" parent="xNBNqYx71W2tSvFin_4h-32">
          <mxGeometry x="0.2557" y="-1" relative="1" as="geometry">
            <mxPoint as="offset" />
          </mxGeometry>
        </mxCell>
        <mxCell id="xNBNqYx71W2tSvFin_4h-34" value="&lt;div&gt;Air Water Content&lt;/div&gt;&lt;div&gt;&amp;amp; Air Water Energy&lt;br&gt;&lt;/div&gt;" style="rounded=1;whiteSpace=wrap;html=1;labelBackgroundColor=none;" vertex="1" parent="1">
          <mxGeometry x="1840" y="300" width="120" height="60" as="geometry" />
        </mxCell>
        <mxCell id="xNBNqYx71W2tSvFin_4h-35" value="Ground Water" style="rounded=1;whiteSpace=wrap;html=1;labelBackgroundColor=none;" vertex="1" parent="1">
          <mxGeometry x="1900" y="575" width="120" height="60" as="geometry" />
        </mxCell>
        <mxCell id="xNBNqYx71W2tSvFin_4h-36" value="" style="endArrow=classic;html=1;rounded=0;exitX=0.25;exitY=0;exitDx=0;exitDy=0;entryX=0.25;entryY=1;entryDx=0;entryDy=0;labelBackgroundColor=none;fontColor=default;" edge="1" parent="1" source="xNBNqYx71W2tSvFin_4h-35" target="xNBNqYx71W2tSvFin_4h-29">
          <mxGeometry width="50" height="50" relative="1" as="geometry">
            <mxPoint x="1960" y="400" as="sourcePoint" />
            <mxPoint x="2010" y="350" as="targetPoint" />
          </mxGeometry>
        </mxCell>
        <mxCell id="xNBNqYx71W2tSvFin_4h-37" value="&lt;div&gt;Capillary Rise&lt;/div&gt;" style="edgeLabel;html=1;align=center;verticalAlign=middle;resizable=0;points=[];labelBackgroundColor=none;" vertex="1" connectable="0" parent="xNBNqYx71W2tSvFin_4h-36">
          <mxGeometry x="-0.019" relative="1" as="geometry">
            <mxPoint as="offset" />
          </mxGeometry>
        </mxCell>
        <mxCell id="xNBNqYx71W2tSvFin_4h-38" value="" style="endArrow=classic;html=1;rounded=0;entryX=0.75;entryY=0;entryDx=0;entryDy=0;exitX=0.75;exitY=1;exitDx=0;exitDy=0;labelBackgroundColor=none;fontColor=default;" edge="1" parent="1" source="xNBNqYx71W2tSvFin_4h-29" target="xNBNqYx71W2tSvFin_4h-35">
          <mxGeometry width="50" height="50" relative="1" as="geometry">
            <mxPoint x="1980" y="540" as="sourcePoint" />
            <mxPoint x="2030" y="490" as="targetPoint" />
          </mxGeometry>
        </mxCell>
        <mxCell id="xNBNqYx71W2tSvFin_4h-39" value="Drainage" style="edgeLabel;html=1;align=center;verticalAlign=middle;resizable=0;points=[];labelBackgroundColor=none;" vertex="1" connectable="0" parent="xNBNqYx71W2tSvFin_4h-38">
          <mxGeometry x="-0.3619" y="1" relative="1" as="geometry">
            <mxPoint as="offset" />
          </mxGeometry>
        </mxCell>
        <mxCell id="xNBNqYx71W2tSvFin_4h-40" value="" style="endArrow=classic;html=1;rounded=0;entryX=0.75;entryY=0;entryDx=0;entryDy=0;labelBackgroundColor=none;fontColor=default;" edge="1" parent="1" target="xNBNqYx71W2tSvFin_4h-22">
          <mxGeometry width="50" height="50" relative="1" as="geometry">
            <mxPoint x="2040" y="-50" as="sourcePoint" />
            <mxPoint x="2060" y="260" as="targetPoint" />
          </mxGeometry>
        </mxCell>
        <mxCell id="xNBNqYx71W2tSvFin_4h-41" value="Condensation" style="edgeLabel;html=1;align=center;verticalAlign=middle;resizable=0;points=[];labelBackgroundColor=none;" vertex="1" connectable="0" parent="xNBNqYx71W2tSvFin_4h-40">
          <mxGeometry x="-0.3333" y="3" relative="1" as="geometry">
            <mxPoint x="17" y="-10" as="offset" />
          </mxGeometry>
        </mxCell>
        <mxCell id="xNBNqYx71W2tSvFin_4h-42" value="" style="endArrow=classic;startArrow=classic;html=1;rounded=0;entryX=0.25;entryY=0;entryDx=0;entryDy=0;labelBackgroundColor=none;fontColor=default;" edge="1" parent="1" target="xNBNqYx71W2tSvFin_4h-34">
          <mxGeometry width="50" height="50" relative="1" as="geometry">
            <mxPoint x="1870" y="-50" as="sourcePoint" />
            <mxPoint x="1960" y="290" as="targetPoint" />
          </mxGeometry>
        </mxCell>
        <mxCell id="xNBNqYx71W2tSvFin_4h-43" value="&lt;div&gt;Net Air&lt;/div&gt;&lt;div&gt;Humidity&lt;/div&gt;&lt;div&gt;Transport&lt;/div&gt;" style="edgeLabel;html=1;align=center;verticalAlign=middle;resizable=0;points=[];labelBackgroundColor=none;" vertex="1" connectable="0" parent="xNBNqYx71W2tSvFin_4h-42">
          <mxGeometry x="0.0773" y="6" relative="1" as="geometry">
            <mxPoint x="-6" y="-28" as="offset" />
          </mxGeometry>
        </mxCell>
        <mxCell id="xNBNqYx71W2tSvFin_4h-44" value="" style="endArrow=classic;startArrow=classic;html=1;rounded=0;exitX=1;exitY=0.5;exitDx=0;exitDy=0;labelBackgroundColor=none;fontColor=default;" edge="1" parent="1" source="xNBNqYx71W2tSvFin_4h-35">
          <mxGeometry width="50" height="50" relative="1" as="geometry">
            <mxPoint x="1910" y="340" as="sourcePoint" />
            <mxPoint x="2380" y="605" as="targetPoint" />
          </mxGeometry>
        </mxCell>
        <mxCell id="xNBNqYx71W2tSvFin_4h-45" value="&lt;div&gt;Net Runoff&lt;/div&gt;" style="edgeLabel;html=1;align=center;verticalAlign=middle;resizable=0;points=[];labelBackgroundColor=none;" vertex="1" connectable="0" parent="xNBNqYx71W2tSvFin_4h-44">
          <mxGeometry x="0.0055" y="-4" relative="1" as="geometry">
            <mxPoint x="-11" y="-9" as="offset" />
          </mxGeometry>
        </mxCell>
        <mxCell id="xNBNqYx71W2tSvFin_4h-46" value="" style="endArrow=classic;startArrow=classic;html=1;rounded=0;exitX=0.25;exitY=0;exitDx=0;exitDy=0;labelBackgroundColor=none;fontColor=default;" edge="1" parent="1" source="xNBNqYx71W2tSvFin_4h-11">
          <mxGeometry width="50" height="50" relative="1" as="geometry">
            <mxPoint x="1910" y="310" as="sourcePoint" />
            <mxPoint x="1810" y="-50" as="targetPoint" />
          </mxGeometry>
        </mxCell>
        <mxCell id="xNBNqYx71W2tSvFin_4h-47" value="Air Transport" style="edgeLabel;html=1;align=center;verticalAlign=middle;resizable=0;points=[];labelBackgroundColor=none;" vertex="1" connectable="0" parent="xNBNqYx71W2tSvFin_4h-46">
          <mxGeometry x="-0.0141" y="1" relative="1" as="geometry">
            <mxPoint as="offset" />
          </mxGeometry>
        </mxCell>
        <mxCell id="xNBNqYx71W2tSvFin_4h-48" value="" style="endArrow=classic;html=1;rounded=0;exitX=1;exitY=1;exitDx=0;exitDy=0;entryX=0.781;entryY=-0.026;entryDx=0;entryDy=0;entryPerimeter=0;labelBackgroundColor=none;fontColor=default;" edge="1" parent="1" source="xNBNqYx71W2tSvFin_4h-22" target="xNBNqYx71W2tSvFin_4h-8">
          <mxGeometry width="50" height="50" relative="1" as="geometry">
            <mxPoint x="2080" y="140" as="sourcePoint" />
            <mxPoint x="2080" y="490" as="targetPoint" />
            <Array as="points">
              <mxPoint x="2100" y="150" />
              <mxPoint x="2100" y="360" />
              <mxPoint x="2100" y="410" />
            </Array>
          </mxGeometry>
        </mxCell>
        <mxCell id="xNBNqYx71W2tSvFin_4h-49" value="Stemwaterflow" style="edgeLabel;html=1;align=center;verticalAlign=middle;resizable=0;points=[];labelBackgroundColor=none;" vertex="1" connectable="0" parent="xNBNqYx71W2tSvFin_4h-48">
          <mxGeometry x="-0.0428" y="2" relative="1" as="geometry">
            <mxPoint as="offset" />
          </mxGeometry>
        </mxCell>
        <mxCell id="xNBNqYx71W2tSvFin_4h-50" style="edgeStyle=orthogonalEdgeStyle;rounded=0;orthogonalLoop=1;jettySize=auto;html=1;exitX=0.25;exitY=1;exitDx=0;exitDy=0;entryX=0.75;entryY=0;entryDx=0;entryDy=0;labelBackgroundColor=none;fontColor=default;" edge="1" parent="1" source="xNBNqYx71W2tSvFin_4h-8" target="xNBNqYx71W2tSvFin_4h-29">
          <mxGeometry relative="1" as="geometry" />
        </mxCell>
        <mxCell id="xNBNqYx71W2tSvFin_4h-51" value="Infiltration" style="edgeLabel;html=1;align=center;verticalAlign=middle;resizable=0;points=[];labelBackgroundColor=none;" vertex="1" connectable="0" parent="xNBNqYx71W2tSvFin_4h-50">
          <mxGeometry x="-0.026" relative="1" as="geometry">
            <mxPoint as="offset" />
          </mxGeometry>
        </mxCell>
        <mxCell id="xNBNqYx71W2tSvFin_4h-52" value="" style="endArrow=classic;startArrow=classic;html=1;rounded=0;exitX=1;exitY=0.5;exitDx=0;exitDy=0;labelBackgroundColor=none;fontColor=default;" edge="1" parent="1" source="xNBNqYx71W2tSvFin_4h-8">
          <mxGeometry width="50" height="50" relative="1" as="geometry">
            <mxPoint x="1880" y="360" as="sourcePoint" />
            <mxPoint x="2380" y="430" as="targetPoint" />
          </mxGeometry>
        </mxCell>
        <mxCell id="xNBNqYx71W2tSvFin_4h-53" value="Net Surface Runoff" style="edgeLabel;html=1;align=center;verticalAlign=middle;resizable=0;points=[];labelBackgroundColor=none;" vertex="1" connectable="0" parent="xNBNqYx71W2tSvFin_4h-52">
          <mxGeometry x="-0.0022" relative="1" as="geometry">
            <mxPoint as="offset" />
          </mxGeometry>
        </mxCell>
        <mxCell id="xNBNqYx71W2tSvFin_4h-54" style="edgeStyle=orthogonalEdgeStyle;rounded=0;orthogonalLoop=1;jettySize=auto;html=1;exitX=0;exitY=0;exitDx=0;exitDy=0;entryX=1;entryY=0.75;entryDx=0;entryDy=0;labelBackgroundColor=none;fontColor=default;" edge="1" parent="1" source="xNBNqYx71W2tSvFin_4h-8" target="xNBNqYx71W2tSvFin_4h-34">
          <mxGeometry relative="1" as="geometry" />
        </mxCell>
        <mxCell id="xNBNqYx71W2tSvFin_4h-55" value="&lt;div&gt;Soil Surface&lt;/div&gt;&lt;div&gt;Water Evaporation&lt;/div&gt;" style="edgeLabel;html=1;align=center;verticalAlign=middle;resizable=0;points=[];labelBackgroundColor=none;" vertex="1" connectable="0" parent="xNBNqYx71W2tSvFin_4h-54">
          <mxGeometry x="0.1574" y="1" relative="1" as="geometry">
            <mxPoint as="offset" />
          </mxGeometry>
        </mxCell>
        <mxCell id="xNBNqYx71W2tSvFin_4h-56" value="" style="edgeStyle=orthogonalEdgeStyle;rounded=0;orthogonalLoop=1;jettySize=auto;html=1;exitX=1;exitY=0.75;exitDx=0;exitDy=0;labelBackgroundColor=none;fontColor=default;" edge="1" parent="1" source="xNBNqYx71W2tSvFin_4h-29" target="xNBNqYx71W2tSvFin_4h-58">
          <mxGeometry relative="1" as="geometry">
            <mxPoint x="2140" y="-50" as="targetPoint" />
            <mxPoint x="2020" y="525" as="sourcePoint" />
          </mxGeometry>
        </mxCell>
        <mxCell id="xNBNqYx71W2tSvFin_4h-57" value="Root Water Uptake" style="edgeLabel;html=1;align=center;verticalAlign=middle;resizable=0;points=[];labelBackgroundColor=none;" vertex="1" connectable="0" parent="xNBNqYx71W2tSvFin_4h-56">
          <mxGeometry x="-0.8099" y="-1" relative="1" as="geometry">
            <mxPoint as="offset" />
          </mxGeometry>
        </mxCell>
        <mxCell id="xNBNqYx71W2tSvFin_4h-58" value="Plant Water Content" style="rounded=1;whiteSpace=wrap;html=1;labelBackgroundColor=none;" vertex="1" parent="1">
          <mxGeometry x="2120" y="140" width="40" height="110" as="geometry" />
        </mxCell>
        <mxCell id="xNBNqYx71W2tSvFin_4h-59" value="" style="endArrow=none;html=1;rounded=0;entryX=0;entryY=0.5;entryDx=0;entryDy=0;labelBackgroundColor=none;fontColor=default;" edge="1" parent="1" target="xNBNqYx71W2tSvFin_4h-8">
          <mxGeometry width="50" height="50" relative="1" as="geometry">
            <mxPoint x="1930" y="420" as="sourcePoint" />
            <mxPoint x="1960" y="430" as="targetPoint" />
          </mxGeometry>
        </mxCell>
      </root>
    </mxGraphModel>
  </diagram>
</mxfile>
