<mxfile host="Electron" modified="2024-02-03T12:30:38.718Z" agent="Mozilla/5.0 (Windows NT 10.0; Win64; x64) AppleWebKit/537.36 (KHTML, like Gecko) draw.io/23.0.2 Chrome/120.0.6099.109 Electron/28.1.0 Safari/537.36" etag="zDr8SMv1wLjems5mMF3k" version="23.0.2" type="device">
  <diagram name="Seite-1" id="7Az4x1SGsvqFHaJcp-XF">
    <mxGraphModel dx="1183" dy="701" grid="1" gridSize="10" guides="1" tooltips="1" connect="1" arrows="1" fold="1" page="1" pageScale="1" pageWidth="827" pageHeight="1169" background="#ffffff" math="0" shadow="0">
      <root>
        <mxCell id="0" />
        <mxCell id="1" parent="0" />
        <mxCell id="nQszKuukVJCM_8kcIF6Z-1" style="edgeStyle=orthogonalEdgeStyle;rounded=0;orthogonalLoop=1;jettySize=auto;html=1;shape=flexArrow;labelBackgroundColor=none;strokeColor=none;fontColor=default;fillColor=#AACBE2;" parent="1" source="F4znzwE7h5jLNRgbeSbK-5" target="F4znzwE7h5jLNRgbeSbK-12" edge="1">
          <mxGeometry relative="1" as="geometry" />
        </mxCell>
        <mxCell id="Um-XUSXTxxYnZ99jfH0f-5" style="edgeStyle=orthogonalEdgeStyle;rounded=0;orthogonalLoop=1;jettySize=auto;html=1;shape=flexArrow;labelBackgroundColor=none;strokeColor=none;fontColor=default;fillColor=#AACBE2;" edge="1" parent="1" source="F4znzwE7h5jLNRgbeSbK-1" target="nQszKuukVJCM_8kcIF6Z-3">
          <mxGeometry relative="1" as="geometry" />
        </mxCell>
        <mxCell id="Um-XUSXTxxYnZ99jfH0f-6" style="edgeStyle=orthogonalEdgeStyle;rounded=0;orthogonalLoop=1;jettySize=auto;html=1;shape=flexArrow;labelBackgroundColor=none;strokeColor=none;fontColor=default;fillColor=#AACBE2;" edge="1" parent="1" source="F4znzwE7h5jLNRgbeSbK-1" target="Um-XUSXTxxYnZ99jfH0f-2">
          <mxGeometry relative="1" as="geometry" />
        </mxCell>
        <mxCell id="F4znzwE7h5jLNRgbeSbK-1" value="Evapo-&lt;br&gt;transpiration" style="rounded=0;whiteSpace=wrap;html=1;movable=1;resizable=1;rotatable=1;deletable=1;editable=1;locked=0;connectable=1;fontSize=17;fontStyle=1;fillColor=#79A5C7;fontColor=#1A1A1A;strokeColor=#D0CEE2;labelBackgroundColor=none;" parent="1" vertex="1">
          <mxGeometry x="323" y="770" width="120" height="60" as="geometry" />
        </mxCell>
        <mxCell id="F4znzwE7h5jLNRgbeSbK-6" style="edgeStyle=orthogonalEdgeStyle;rounded=0;orthogonalLoop=1;jettySize=auto;html=1;movable=1;resizable=1;rotatable=1;deletable=1;editable=1;locked=0;connectable=1;shape=flexArrow;labelBackgroundColor=none;strokeColor=none;fontColor=default;fillColor=#AACBE2;" parent="1" source="F4znzwE7h5jLNRgbeSbK-3" target="F4znzwE7h5jLNRgbeSbK-5" edge="1">
          <mxGeometry relative="1" as="geometry" />
        </mxCell>
        <mxCell id="F4znzwE7h5jLNRgbeSbK-7" style="edgeStyle=orthogonalEdgeStyle;rounded=0;orthogonalLoop=1;jettySize=auto;html=1;movable=1;resizable=1;rotatable=1;deletable=1;editable=1;locked=0;connectable=1;shape=flexArrow;labelBackgroundColor=none;strokeColor=none;fontColor=default;fillColor=#AACBE2;entryX=0.25;entryY=0;entryDx=0;entryDy=0;" parent="1" source="F4znzwE7h5jLNRgbeSbK-3" target="F4znzwE7h5jLNRgbeSbK-1" edge="1">
          <mxGeometry relative="1" as="geometry" />
        </mxCell>
        <mxCell id="F4znzwE7h5jLNRgbeSbK-10" style="edgeStyle=orthogonalEdgeStyle;rounded=0;orthogonalLoop=1;jettySize=auto;html=1;movable=1;resizable=1;rotatable=1;deletable=1;editable=1;locked=0;connectable=1;shape=flexArrow;labelBackgroundColor=none;strokeColor=none;fontColor=default;fillColor=#AACBE2;" parent="1" source="F4znzwE7h5jLNRgbeSbK-3" target="F4znzwE7h5jLNRgbeSbK-8" edge="1">
          <mxGeometry relative="1" as="geometry" />
        </mxCell>
        <mxCell id="F4znzwE7h5jLNRgbeSbK-3" value="Aerodynamic conductance" style="rounded=0;whiteSpace=wrap;html=1;movable=1;resizable=1;rotatable=1;deletable=1;editable=1;locked=0;connectable=1;fontSize=17;fontStyle=1;fillColor=#79A5C7;fontColor=#1A1A1A;strokeColor=#D0CEE2;labelBackgroundColor=none;" parent="1" vertex="1">
          <mxGeometry x="293" y="370" width="120" height="60" as="geometry" />
        </mxCell>
        <mxCell id="Um-XUSXTxxYnZ99jfH0f-8" style="edgeStyle=orthogonalEdgeStyle;rounded=0;orthogonalLoop=1;jettySize=auto;html=1;shape=flexArrow;labelBackgroundColor=none;strokeColor=none;fontColor=default;fillColor=#AACBE2;" edge="1" parent="1" source="F4znzwE7h5jLNRgbeSbK-5" target="nQszKuukVJCM_8kcIF6Z-3">
          <mxGeometry relative="1" as="geometry" />
        </mxCell>
        <mxCell id="F4znzwE7h5jLNRgbeSbK-5" value="Plant evaporation" style="whiteSpace=wrap;html=1;movable=1;resizable=1;rotatable=1;deletable=1;editable=1;locked=0;connectable=1;fontSize=17;fontStyle=1;fillColor=#79A5C7;fontColor=#1A1A1A;strokeColor=#D0CEE2;labelBackgroundColor=none;" parent="1" vertex="1">
          <mxGeometry x="423" y="450" width="120" height="60" as="geometry" />
        </mxCell>
        <mxCell id="nQszKuukVJCM_8kcIF6Z-4" style="edgeStyle=orthogonalEdgeStyle;rounded=0;orthogonalLoop=1;jettySize=auto;html=1;shape=flexArrow;labelBackgroundColor=none;strokeColor=none;fontColor=default;fillColor=#AACBE2;" parent="1" source="F4znzwE7h5jLNRgbeSbK-8" target="nQszKuukVJCM_8kcIF6Z-3" edge="1">
          <mxGeometry relative="1" as="geometry" />
        </mxCell>
        <mxCell id="F4znzwE7h5jLNRgbeSbK-8" value="Soil evaporation" style="whiteSpace=wrap;html=1;movable=1;resizable=1;rotatable=1;deletable=1;editable=1;locked=0;connectable=1;fontSize=17;fontStyle=1;fillColor=#79A5C7;fontColor=#1A1A1A;strokeColor=#D0CEE2;labelBackgroundColor=none;" parent="1" vertex="1">
          <mxGeometry x="3" y="770" width="120" height="60" as="geometry" />
        </mxCell>
        <mxCell id="F4znzwE7h5jLNRgbeSbK-13" style="edgeStyle=orthogonalEdgeStyle;rounded=0;orthogonalLoop=1;jettySize=auto;html=1;movable=1;resizable=1;rotatable=1;deletable=1;editable=1;locked=0;connectable=1;shape=flexArrow;labelBackgroundColor=none;strokeColor=none;fontColor=default;fillColor=#AACBE2;" parent="1" source="F4znzwE7h5jLNRgbeSbK-11" target="F4znzwE7h5jLNRgbeSbK-12" edge="1">
          <mxGeometry relative="1" as="geometry">
            <mxPoint x="803" y="470" as="sourcePoint" />
          </mxGeometry>
        </mxCell>
        <mxCell id="F4znzwE7h5jLNRgbeSbK-11" value="LAI" style="whiteSpace=wrap;html=1;movable=1;resizable=1;rotatable=1;deletable=1;editable=1;locked=0;connectable=1;fontSize=17;fontStyle=1;fillColor=#79A5C7;fontColor=#1A1A1A;strokeColor=#D0CEE2;labelBackgroundColor=none;" parent="1" vertex="1">
          <mxGeometry x="553" y="660" width="120" height="60" as="geometry" />
        </mxCell>
        <mxCell id="F4znzwE7h5jLNRgbeSbK-16" style="edgeStyle=orthogonalEdgeStyle;rounded=0;orthogonalLoop=1;jettySize=auto;html=1;shape=flexArrow;labelBackgroundColor=none;strokeColor=none;fontColor=default;fillColor=#AACBE2;" parent="1" source="F4znzwE7h5jLNRgbeSbK-12" target="F4znzwE7h5jLNRgbeSbK-17" edge="1">
          <mxGeometry relative="1" as="geometry">
            <mxPoint x="553" y="921.5384521484375" as="targetPoint" />
          </mxGeometry>
        </mxCell>
        <mxCell id="Um-XUSXTxxYnZ99jfH0f-4" value="throughfall" style="edgeLabel;html=1;align=center;verticalAlign=middle;resizable=0;points=[];fontSize=15;labelBackgroundColor=none;fontColor=#1A1A1A;rotation=0;fontStyle=1" vertex="1" connectable="0" parent="F4znzwE7h5jLNRgbeSbK-16">
          <mxGeometry x="0.55" y="2" relative="1" as="geometry">
            <mxPoint x="-45" y="-245" as="offset" />
          </mxGeometry>
        </mxCell>
        <mxCell id="Bv9hE4qifPDhCWpiC0fX-1" style="edgeStyle=orthogonalEdgeStyle;rounded=0;orthogonalLoop=1;jettySize=auto;html=1;shape=flexArrow;labelBackgroundColor=none;strokeColor=none;fontColor=default;fillColor=#AACBE2;" parent="1" source="F4znzwE7h5jLNRgbeSbK-12" target="F4znzwE7h5jLNRgbeSbK-5" edge="1">
          <mxGeometry relative="1" as="geometry" />
        </mxCell>
        <mxCell id="F4znzwE7h5jLNRgbeSbK-12" value="Interception / Throughfall" style="whiteSpace=wrap;html=1;movable=1;resizable=1;rotatable=1;deletable=1;editable=1;locked=0;connectable=1;fontSize=17;fontStyle=1;fillColor=#79A5C7;fontColor=#1A1A1A;strokeColor=#D0CEE2;labelBackgroundColor=none;" parent="1" vertex="1">
          <mxGeometry x="553" y="550" width="120" height="60" as="geometry" />
        </mxCell>
        <mxCell id="F4znzwE7h5jLNRgbeSbK-17" value="Soil Moisture&lt;br style=&quot;font-size: 17px;&quot;&gt;Group" style="rounded=1;whiteSpace=wrap;html=1;fontSize=17;fontStyle=1;fillColor=#FFFF99;fontColor=#000000;strokeColor=#B09500;labelBackgroundColor=none;" parent="1" vertex="1">
          <mxGeometry x="703" y="900" width="120" height="60" as="geometry" />
        </mxCell>
        <mxCell id="nQszKuukVJCM_8kcIF6Z-3" value="Transpiration" style="rounded=0;whiteSpace=wrap;html=1;fontSize=17;fontStyle=1;fillColor=#79A5C7;fontColor=#1A1A1A;strokeColor=#D0CEE2;labelBackgroundColor=none;" parent="1" vertex="1">
          <mxGeometry x="163" y="770" width="120" height="60" as="geometry" />
        </mxCell>
        <mxCell id="P90INpcbdTzRNKORt_kn-2" style="edgeStyle=orthogonalEdgeStyle;rounded=0;orthogonalLoop=1;jettySize=auto;html=1;shape=flexArrow;labelBackgroundColor=none;strokeColor=none;fontColor=default;fillColor=#AACBE2;exitX=0.5;exitY=0;exitDx=0;exitDy=0;" parent="1" source="P90INpcbdTzRNKORt_kn-1" target="F4znzwE7h5jLNRgbeSbK-1" edge="1">
          <mxGeometry relative="1" as="geometry">
            <Array as="points">
              <mxPoint x="618" y="880" />
              <mxPoint x="383" y="880" />
            </Array>
          </mxGeometry>
        </mxCell>
        <mxCell id="Um-XUSXTxxYnZ99jfH0f-3" value="bulk stomatal resistance" style="edgeLabel;html=1;align=center;verticalAlign=middle;resizable=0;points=[];fontSize=15;labelBackgroundColor=none;fontColor=#1A1A1A;rotation=0;fontStyle=1" vertex="1" connectable="0" parent="P90INpcbdTzRNKORt_kn-2">
          <mxGeometry x="-0.4982" relative="1" as="geometry">
            <mxPoint x="-56" y="-15" as="offset" />
          </mxGeometry>
        </mxCell>
        <mxCell id="P90INpcbdTzRNKORt_kn-1" value="Photosynthesis Group" style="whiteSpace=wrap;html=1;rounded=1;fontSize=17;fontStyle=1;fillColor=#FFFF99;fontColor=#000000;strokeColor=#B09500;labelBackgroundColor=none;" parent="1" vertex="1">
          <mxGeometry x="543" y="900" width="150" height="60" as="geometry" />
        </mxCell>
        <mxCell id="Um-XUSXTxxYnZ99jfH0f-7" style="edgeStyle=orthogonalEdgeStyle;rounded=0;orthogonalLoop=1;jettySize=auto;html=1;shape=flexArrow;labelBackgroundColor=none;strokeColor=none;fontColor=default;fillColor=#AACBE2;" edge="1" parent="1" source="Um-XUSXTxxYnZ99jfH0f-2" target="F4znzwE7h5jLNRgbeSbK-11">
          <mxGeometry relative="1" as="geometry" />
        </mxCell>
        <mxCell id="Um-XUSXTxxYnZ99jfH0f-2" value="Calibration" style="whiteSpace=wrap;html=1;fontSize=17;fontStyle=1;fillColor=#79A5C7;fontColor=#1A1A1A;strokeColor=#D0CEE2;labelBackgroundColor=none;" vertex="1" parent="1">
          <mxGeometry x="553" y="770" width="120" height="60" as="geometry" />
        </mxCell>
        <mxCell id="Um-XUSXTxxYnZ99jfH0f-9" value="&lt;font style=&quot;font-size: 16px;&quot;&gt;&lt;b&gt;[i]&lt;/b&gt;&lt;/font&gt;" style="text;html=1;align=center;verticalAlign=middle;resizable=0;points=[];autosize=1;strokeColor=none;fillColor=none;fontColor=#1A1A1A;" vertex="1" parent="1">
          <mxGeometry x="531" y="516" width="40" height="30" as="geometry" />
        </mxCell>
        <mxCell id="Um-XUSXTxxYnZ99jfH0f-11" style="edgeStyle=orthogonalEdgeStyle;rounded=0;orthogonalLoop=1;jettySize=auto;html=1;movable=1;resizable=1;rotatable=1;deletable=1;editable=1;locked=0;connectable=1;shape=flexArrow;labelBackgroundColor=none;strokeColor=none;fontColor=default;fillColor=#AACBE2;entryX=0.75;entryY=0;entryDx=0;entryDy=0;" edge="1" parent="1" source="F4znzwE7h5jLNRgbeSbK-11" target="F4znzwE7h5jLNRgbeSbK-1">
          <mxGeometry relative="1" as="geometry">
            <mxPoint x="883" y="390" as="sourcePoint" />
            <mxPoint x="883" y="730" as="targetPoint" />
          </mxGeometry>
        </mxCell>
      </root>
    </mxGraphModel>
  </diagram>
</mxfile>
