#,variable,value,unit,description,source
1,o2_atm,209500,ppm,atmopsheric O2 concentration,
2,MolCO2,44.01,g mol-1,molar mass of CO2,
3,MolC,12.0107,g mol-1,molar mass of C,
4,MolH2O,18.015,g mol-1,molar mass of H2O,
5,MolC6H12O6,180.156,g mol-1,molar mass of C6H12O6 (glucose),
6,StandDens,325,number ha-1,stand density,Mund et al. (2020) Tab. 1
7,DBH_avg,71,cm,quadratic mean of diameters of the 10% largest trees,Mund et al. (2020) Tab. 1
8,hcanopy,35,m,canopy height,Tamrakar et al. (2018) Tab. 1
9,BasalArea,39,m2 ha-1,basal area,Mund et al. (2020) Tab. 1
10,TimberVol,637,m3 ha-1,timber volume,Mund et al. (2020) Tab. 1
11,Cstock_wood,230,t C ha-1,woody biomass C stocks,Mund et al. (2020) Tab. 1
12,max_LAI,5.1,m2 m-2,maximum effective leaf area index during summer,Tamrakar et al. (2018) Tab. 1
13,leaf_out,110,day of year, Day when leaf emission starts in the spring, -
14,leaf_full,170,day of year, Day when leaf reach max LAI at the end of spring, -
15,leaf_fall,280,day of year, Day when leaf start to fall, -
16,leaf_fall_complete,300,day of year, Day when leaf are all fallen, -
17,p,3.5,unitless,First parameter of Beta function for LAI distribution in canopy, From Bonan figure 2.3 decidious trees - Meyers et al. (1998) and Wu et al. (2003)
18,q,2,unitless,Second parameter of Beta function for LAI distribution in canopy, From Bonan figure 2.3 decidious trees - Meyers et al. (1998) and Wu et al. (2003)
19,b1,0.14,unitless,NPP to leaf,Bonan Table 17.3  - Deciduous broadleaf values
20,b2,0.6,unitless,NPP to root,Bonan Table 17.3  - Deciduous broadleaf values
21,b3,0.26,unitless,NPP to wood,Bonan Table 17.3  - Deciduous broadleaf values
22,a41,0.6,unitless,fractional input to metabolic litter from leaf,Bonan Table 17.4 - Deciduous broadleaf values
23,a51,0.4,unitless,fractional input to structural litter fom leaf,Bonan Table 17.4 - Deciduous broadleaf values
24,a42,0.57,unitless,fractional input from root to metabolic litter,Bonan Table 17.4 - Deciduous broadleaf values
25,a52,0.43,unitless,fractional input from root to structural litter,Bonan Table 17.4 - Deciduous broadleaf values
26,a63,1,unitless,fractional input from wood to CWD,Bonan Table 17.4 - Deciduous broadleaf values
27,a74,0.45,unitless,fractional input to FSOM from metabolic litter,Bonan Table 17.4 - Deciduous broadleaf values
28,a75,0.36,unitless,fractional input to FSOM from structural litter,Bonan Table 17.4 - Deciduous broadleaf values
29,a85,0.14,unitless,fractional input to SSOM from structural litter,Bonan Table 17.4 - Deciduous broadleaf values
30,a76,0.24,unitless,fractional  input to FSOM from CWD,Bonan Table 17.4 - Deciduous broadleaf values
31,a86,0.28,unitless,fractional input to SSOM from CWD,Bonan Table 17.4 - Deciduous broadleaf values
32,a87,0.42,unitless,fractional input to SSOM from FSOM,Bonan Table 17.4 - Deciduous broadleaf values
33,a97,0.006,unitless,fractional input to PSOM from FSOM,Bonan Table 17.4 - Deciduous broadleaf values
34,a98,0.003,unitless,fractional input to PSOM from SSOM,Bonan Table 17.4 - Deciduous broadleaf values
35,k1,8.42E-05,h-1,turnover for pool 1,Bonan Table 17.3  - Deciduous broadleaf values
36,k2,1.09E-05,h-1,turnover for pool 2,Bonan Table 17.3  - Deciduous broadleaf values
37,k3,2.82E-06,h-1,turnover for pool 3,Bonan Table 17.3  - Deciduous broadleaf values
38,k4,2.74E-04,h-1,turnover for pool 4,Bonan Table 17.3  - Deciduous broadleaf values
39,k5,7.62E-05,h-1,turnover for pool 5,Bonan Table 17.3  - Deciduous broadleaf values
40,k6,4.55E-05,h-1,turnover for pool 6,Bonan Table 17.3  - Deciduous broadleaf values
41,k7,1.31E-04,h-1,turnover for pool 7,Bonan Table 17.3  - Deciduous broadleaf values
42,k8,1.19E-05,h-1,turnover for pool 8,Bonan Table 17.3  - Deciduous broadleaf values
43,k9,2.85E-07,h-1,turnover for pool 9,Bonan Table 17.3  - Deciduous broadleaf values
44,S1,1.16,unitless,scaling factor pool 1,Bonan Table 17.3  - Deciduous broadleaf values
45,S2,1,unitless,scaling factor pool 2,Bonan Table 17.3  - Deciduous broadleaf values
46,S3,1,unitless,scaling factor pool 3,Bonan Table 17.3  - Deciduous broadleaf values
47,S4,0.36,unitless,scaling factor pool 4,Bonan Table 17.3  - Deciduous broadleaf values
48,S5,0.36,unitless,scaling factor pool 5,Bonan Table 17.3  - Deciduous broadleaf values
49,S6,0.36,unitless,scaling factor pool 6,Bonan Table 17.3  - Deciduous broadleaf values
50,S7,0.36,unitless,scaling factor pool 7,Bonan Table 17.3  - Deciduous broadleaf values
51,S8,0.36,unitless,scaling factor pool 8,Bonan Table 17.3  - Deciduous broadleaf values
52,S9,0.36,unitless,scaling factor pool 9,Bonan Table 17.3  - Deciduous broadleaf values
